[
  {
    "id": 1,
    "name": "Node.js",
    "img": "catalog/nodejs.png",
    "price": 5.5
  },
  {
    "id": 2,
    "name": "Webpack",
    "img": "catalog/webpack.png",
    "price": 14.35
  },
  {
    "id": 3,
    "name": "JS",
    "img": "catalog/js.png",
    "price": 8.5
  },
  {
    "id": 4,
    "name": "Vue",
    "img": "catalog/vue.png",
    "price": 15.35
  },
  {
    "id": 5,
    "name": "Pug",
    "img": "catalog/pug.png",
    "price": 11.4
  },
  {
    "id": 6,
    "name": "Babel",
    "img": "catalog/babel.png",
    "price": 7.54
  }
]
